{
    "openapi": "3.0.1",
    "info": {
	"title": "Shimmer",
	"description":"A Shimmer-enabled collection of Git repostories",
	"license": {
	    "name": "Apache 2.0",
	    "url": "https://www.apache.org/licenses/LICENSE-2.0.html"
	},
	"version": "0.0.1"
    },
}
